…
```
## The following objects are masked from 'package:base':
## 
##     intersect, setdiff, setequal, union
```

``` r
activity_steps<-activity %>%
  group_by(date)%>%
  summarise(total_steps=sum(steps, na.rm=TRUE))
activity_steps
```

```
## # A tibble: 61 × 2
##    date       total_steps
##    <date>           <dbl>
##  1 2012-10-01           0
##  2 2012-10-02         126
##  3 2012-10-03       11352
##  4 2012-10-04       12116
##  5 2012-10-05       13294
##  6 2012-10-06       15420
##  7 2012-10-07       11015
##  8 2012-10-08           0
##  9 2012-10-09       12811
## 10 2012-10-10        9900
## # ℹ 51 more rows
```
…
